<svg xmlns="http://www.w3.org/2000/svg" xmlns:xlink="http://www.w3.org/1999/xlink" width="260" height="62" viewBox="0 0 260 62">
    <defs>
        <path id="prefix__a" d="M0.925 0.265L56.297 0.265 56.297 62 0.925 62z"/>
        <path id="prefix__c" d="M0 62L259.262 62 259.262 0.265 0 0.265z"/>
    </defs>
    <g fill="none" fill-rule="evenodd">
        <path fill="#2A506A" d="M0 14L0 51 5.057 51 5.057 37.635 17.629 51 24 51 11.028 37.067 22.789 23.831 16.439 23.831 5.057 37.299 5.057 14zM78.225 37.052c0-5.752-3.935-9.478-8.843-9.478-4.88 0-8.816 3.673-8.816 9.478 0 5.78 3.962 9.504 8.816 9.504 4.908 0 8.843-3.776 8.843-9.504m-22.897 0c0-8.141 5.85-14.18 14.054-14.18 8.179 0 14.108 6.039 14.108 14.18 0 8.167-5.983 14.18-14.108 14.18-8.15 0-14.054-6.013-14.054-14.18M123.289 23.542L115.059 50.588 110.997 50.588 102.897 31.016 95.025 50.588 90.858 50.588 82.759 23.542 87.74 23.542 93.212 42.78 100.903 23.542 105.017 23.542 112.761 42.96 118.355 23.542z"/>
        <path fill="#BFC8D4" d="M151.407 23.542L140.702 50.588 135.948 50.588 124.371 23.542 129.917 23.542 138.221 44.32 145.965 23.542z"/>
        <path fill="#70A8DA" d="M154.292 14.423c0-1.874 1.507-3.39 3.373-3.39 1.79 0 3.325 1.516 3.325 3.39 0 1.848-1.535 3.339-3.325 3.339-1.866 0-3.373-1.491-3.373-3.34"/>
        <path fill="#BFC8D4" d="M177.323 46.556c-4.856 0-8.817-3.724-8.817-9.503 0-5.806 3.935-9.478 8.817-9.478 4.905 0 8.842 3.724 8.842 9.478 0 5.726-3.937 9.503-8.842 9.503zm14.105-32.8h-4.984v12.246c-2.405-1.976-5.55-3.129-9.121-3.129-8.204 0-14.056 6.039-14.056 14.18 0 8.166 5.903 14.177 14.056 14.177 8.125 0 14.105-6.01 14.105-14.177 0-.061-.005-.122-.005-.18h.005V13.757z"/>
        <path fill="#2A506A" d="M39.361 22.9c-8.201 0-14.056 6.036-14.056 14.18v13.51h5.24V37.08c0-5.809 3.934-9.479 8.816-9.479 4.905 0 8.843 3.724 8.843 9.478v.012h.023v13.498h5.24V37.08c0-8.143-5.93-14.18-14.106-14.18"/>
        <path fill="#70A8DA" d="M237.055 51.54c-7.02 2.94-15.375 2.144-21.843-2.817-4.053-3.11-6.925-7.567-8.08-12.548-.156-.67.252-1.335.926-1.496.663-.154 1.327.261 1.483.931 1.026 4.422 3.573 8.377 7.17 11.137 8.562 6.566 20.843 4.907 27.375-3.698 5.165-6.802 5.374-16.089.52-23.11-.39-.564-.25-1.339.311-1.731.557-.39 1.333-.252 1.72.313 5.467 7.91 5.235 18.372-.582 26.037-2.426 3.192-5.555 5.537-9 6.982"/>
        <path fill="#2A506A" d="M236.975 56.249c-.03.011-.058.023-.088.032-8.29 2.768-17.38 1.242-24.317-4.076-5.597-4.293-9.198-10.521-10.135-17.535-.936-7.014.898-13.974 5.17-19.6 8.816-11.615 25.389-13.853 36.945-4.993 8.07 6.19 11.849 16.254 9.864 26.264-.135.674-.787 1.11-1.456.977-.67-.135-1.107-.79-.972-1.463 1.799-9.072-1.623-18.193-8.938-23.8-10.47-8.029-25.487-6.003-33.477 4.522-3.87 5.099-5.532 11.406-4.683 17.762.85 6.356 4.11 11.998 9.184 15.887 6.284 4.82 14.523 6.202 22.035 3.694.648-.215 1.349.138 1.565.789.206.623-.105 1.292-.697 1.54"/>
        <g transform="translate(202.964)">
            <mask id="prefix__b" fill="#fff">
                <use xlink:href="#prefix__a"/>
            </mask>
            <path fill="#BFC8D4" d="M37.45 59.613c-9.799 4.102-21.455 2.996-30.485-3.93-.543-.417-.648-1.196-.232-1.742.413-.546 1.188-.651 1.734-.236 12.38 9.497 30.132 7.098 39.578-5.346 9.448-12.443 7.06-30.291-5.32-39.783C30.345-.918 12.591 1.478 3.145 13.922c-.415.546-1.19.65-1.734.235-.543-.417-.648-1.197-.234-1.745C6.155 5.858 13.373 1.642 21.503.545c8.132-1.1 16.201 1.05 22.722 6.052 13.464 10.328 16.06 29.736 5.787 43.27-3.384 4.456-7.75 7.73-12.563 9.746" mask="url(#prefix__b)"/>
        </g>
        <path fill="#2A506A" d="M227.252 35.067L227.252 37.508 216.629 37.508 216.629 35.067 220.854 35.067 220.854 22.817 216.768 23.809 216.768 21.273 221.265 20.164 223.285 20.164 223.285 35.067zM238.573 25.544c0-2.042-1.5-3.185-3.635-3.185-2.126 0-3.489 1.367-3.489 3.411 0 1.934 1.444 3.397 3.264 3.397 1.702 0 3.86-1.192 3.86-3.623m2.795 2.137c0 5.308-2.899 10.005-7.63 10.005-1.16 0-2.442-.32-3.531-.837v-2.537c1.042.518 2.298.931 3.357.931 2.744 0 4.68-2.254 5.223-5.439-1.137 1.109-2.688 1.746-4.227 1.746-3.134 0-5.528-2.618-5.528-5.806 0-3.385 2.463-5.805 5.846-5.805 4.34 0 6.49 3.365 6.49 7.742"/>
        <mask id="prefix__d" fill="#fff">
            <use xlink:href="#prefix__c"/>
        </mask>
        <path fill="#BFC8D4" d="M155.034 50.588L160.246 50.588 160.246 23.542 155.034 23.542z" mask="url(#prefix__d)"/>
    </g>
</svg>
